{
  "orgName": "hari company",
  "edition": "Developer",
  "features": [],
  "settings": {
    "lightningExperienceSettings": {
        "enableS1DesktopEnabled": true
    },
    "securitySettings": {
        "passwordPolicies": {
            "enableSetPasswordInApi": true
        }
    },
    "mobileSettings": {
        "enableS1EncryptedStoragePref2": false
    }
  }
}
